<?xml version="1.0" encoding="UTF-8" standalone="no"?>
<!-- Created with Inkscape (http://www.inkscape.org/) -->

<svg
   xmlns:dc="http://purl.org/dc/elements/1.1/"
   xmlns:cc="http://creativecommons.org/ns#"
   xmlns:rdf="http://www.w3.org/1999/02/22-rdf-syntax-ns#"
   xmlns:svg="http://www.w3.org/2000/svg"
   xmlns="http://www.w3.org/2000/svg"
   xmlns:sodipodi="http://sodipodi.sourceforge.net/DTD/sodipodi-0.dtd"
   xmlns:inkscape="http://www.inkscape.org/namespaces/inkscape"
   width="100"
   height="300"
   viewBox="0 0 100 300"
   version="1.1"
   id="svg2401"
   inkscape:version="0.92.4 (5da689c313, 2019-01-14)"
   sodipodi:docname="fire.svg">
  <defs
     id="defs2395" />
  <sodipodi:namedview
     id="base"
     pagecolor="#ffffff"
     bordercolor="#666666"
     borderopacity="1.0"
     inkscape:pageopacity="0.0"
     inkscape:pageshadow="2"
     inkscape:zoom="1.4"
     inkscape:cx="-137.39456"
     inkscape:cy="159.17661"
     inkscape:document-units="px"
     inkscape:current-layer="layer1"
     showgrid="false"
     units="px"
     inkscape:window-width="1600"
     inkscape:window-height="843"
     inkscape:window-x="0"
     inkscape:window-y="28"
     inkscape:window-maximized="1" />
  <metadata
     id="metadata2398">
    <rdf:RDF>
      <cc:Work
         rdf:about="">
        <dc:format>image/svg+xml</dc:format>
        <dc:type
           rdf:resource="http://purl.org/dc/dcmitype/StillImage" />
        <dc:title></dc:title>
      </cc:Work>
    </rdf:RDF>
  </metadata>
  <g
     inkscape:label="Calque 1"
     inkscape:groupmode="layer"
     id="layer1"
     transform="translate(0,-217.62498)">
    <g
       id="g3078"
       transform="translate(1.7332204,-0.81716462)">
      <g
         id="g18"
         transform="matrix(0.05060752,0,0,-0.05060752,-738.21471,494.77279)">
        <path
           d="m 14818.5,5071.81 h -50.7 c 0,0 -16.9,101.3 8.5,130.85 25.3,29.55 237.4,140.34 765,144.56 527.6,4.22 736,-116.26 746,-148.78 12.7,-41.15 4.2,-113.97 4.2,-113.97 l -1473,-12.66"
           style="fill:#40413c;fill-opacity:1;fill-rule:nonzero;stroke:none"
           id="path20"
           inkscape:connector-curvature="0" />
      </g>
      <g
         id="g26"
         transform="matrix(0.04693836,0,0,-0.04693836,-738.21471,494.77279)">
        <path
           d="m 16300,5541.1 -355,-22.74 v -1046.7 l 191.1,4.56 163.9,1064.88"
           style="fill:#f71e1e;fill-opacity:1;fill-rule:nonzero;stroke:none"
           id="path28"
           inkscape:connector-curvature="0" />
      </g>
      <g
         id="g30"
         transform="matrix(0.0505214,0,0,-0.0505214,-738.21471,494.77279)">
        <path
           d="m 15970.3,5161.45 329.7,-22.33 -3.5,-972.43 -177.6,4.83 -148.6,989.93"
           style="fill:#f71e1e;fill-opacity:1;fill-rule:nonzero;stroke:none"
           id="path32"
           inkscape:connector-curvature="0" />
      </g>
      <g
         id="g34"
         transform="matrix(0.0502145,0,0,-0.0502145,-738.21471,494.77279)">
        <path
           d="m 15070.6,4350.08 c 0,0 -12.8,93.59 38.3,378.61 51.1,285 89.3,557.25 208.4,612.55 119.2,55.3 585,82.95 703,6.38 129.8,-84.17 152.1,-398.79 194.6,-615.76 42.1,-214.63 85.1,-556.21 85.1,-556.21 l -1229.4,174.43"
           style="fill:#d81513;fill-opacity:1;fill-rule:nonzero;stroke:none"
           id="path36"
           inkscape:connector-curvature="0" />
      </g>
      <g
         id="g38"
         transform="matrix(0.04998177,0,0,-0.04998177,-738.21471,494.77279)">
        <path
           d="m 15203.8,4449.36 c 0,0 35.3,179.52 60.9,189.14 25.7,9.61 221.2,83.76 512.9,80.12 256.4,-3.18 387.8,-67.33 419.8,-102.58 32.1,-35.26 102.6,-250 102.6,-250 l -1096.2,83.32"
           style="fill:#40413c;fill-opacity:1;fill-rule:nonzero;stroke:none"
           id="path40"
           inkscape:connector-curvature="0" />
      </g>
      <g
         id="g42"
         transform="matrix(0.05055525,0,0,-0.05055525,-738.21471,494.77279)">
        <path
           d="m 14855,2951.78 c 0,0 14.7,550.74 24.2,734.14 11.6,222.05 17.8,711.84 104.6,776.39 147.9,109.84 459.5,103.88 598.9,107.72 231.4,6.35 455.3,-21.12 527.2,-139.43 71.8,-118.31 118.3,-447.89 143.6,-747.88 25.4,-299.99 46.5,-735.17 46.5,-735.17 l -1445,4.23"
           style="fill:#d81513;fill-opacity:1;fill-rule:nonzero;stroke:none"
           id="path44"
           inkscape:connector-curvature="0" />
      </g>
      <g
         id="g46"
         transform="matrix(0.04931345,0,0,-0.04931345,-738.21471,494.77279)">
        <path
           d="m 15474.8,4772.84 c 3.3,9.74 105.6,537.62 143,575.02 84.4,84.46 636.7,51.98 636.7,51.98 l 45.5,-58.47 c 0,0 -457.7,28.51 -591.3,-42.24 -78,-41.37 -152.6,-480.81 -152.6,-480.81 l -81.3,-45.48"
           style="fill:#f71e1e;fill-opacity:1;fill-rule:nonzero;stroke:none"
           id="path48"
           inkscape:connector-curvature="0" />
      </g>
      <g
         id="g50"
         transform="matrix(0.04986403,0,0,-0.04986403,-738.21471,494.77279)">
        <path
           d="m 16210.1,4549.88 c 0,0 -222.9,46.92 -482,32.1 -185.6,-10.59 -441.7,-51.62 -465.9,-77.08 -57.8,-61.05 -128.5,-1426.54 -128.5,-1426.54 l 135,12.88 c 0,0 22.5,1314.03 64.2,1368.64 18,23.56 234.1,55.11 430.5,67.48 259.9,16.38 536.6,-35.34 536.6,-35.34 l -89.9,57.86"
           style="fill:#f71e1e;fill-opacity:1;fill-rule:nonzero;stroke:none"
           id="path52"
           inkscape:connector-curvature="0" />
      </g>
      <g
         id="g54"
         transform="matrix(0.05054206,0,0,-0.05054206,-738.21471,494.77279)">
        <path
           d="m 16300,3039.17 h -1436.9 v -48.6 H 16300 v 48.6"
           style="fill:#8e1616;fill-opacity:1;fill-rule:nonzero;stroke:none"
           id="path56"
           inkscape:connector-curvature="0" />
      </g>
      <g
         id="g58"
         transform="matrix(0.04856324,0,0,-0.04856324,-738.21471,494.77279)">
        <path
           d="m 16300,3134.42 h -131.9 V 4625.56 H 16300 V 3134.42"
           style="fill:#8e1616;fill-opacity:1;fill-rule:nonzero;stroke:none"
           id="path60"
           inkscape:connector-curvature="0" />
      </g>
      <g
         id="g62"
         transform="matrix(0.04844849,0,0,-0.04844849,-738.21471,494.77279)">
        <path
           d="m 16300,4656.34 h -49.6 v 469.53 h 49.6 v -469.53"
           style="fill:#8e1616;fill-opacity:1;fill-rule:nonzero;stroke:none"
           id="path64"
           inkscape:connector-curvature="0" />
      </g>
      <g
         id="g66"
         transform="matrix(0.04852714,0,0,-0.04852714,-738.21471,494.77279)">
        <path
           d="m 16300,5126.64 c 0,-8.67 -6.4,-15.64 -14.3,-15.64 h -73.8 c -7.9,0 -14.2,6.97 -14.2,15.64 0,8.68 6.3,15.7 14.2,15.7 h 73.8 c 7.9,0 14.3,-7.02 14.3,-15.7"
           style="fill:#40413c;fill-opacity:1;fill-rule:nonzero;stroke:none"
           id="path68"
           inkscape:connector-curvature="0" />
      </g>
      <g
         id="g70"
         transform="matrix(0.04847811,0,0,-0.04847811,-738.21471,494.77279)">
        <path
           d="m 16300,3149.83 h -16.5 v 1487.15 h 16.5 V 3149.83"
           style="fill:#f71e1e;fill-opacity:1;fill-rule:nonzero;stroke:none"
           id="path72"
           inkscape:connector-curvature="0" />
      </g>
      <g
         id="g74"
         transform="matrix(0.04839946,0,0,-0.04839946,-738.21471,494.77279)">
        <path
           d="m 16300,4671 h -9.9 v 456.78 h 9.9 V 4671"
           style="fill:#f71e1e;fill-opacity:1;fill-rule:nonzero;stroke:none"
           id="path76"
           inkscape:connector-curvature="0" />
      </g>
      <g
         id="g78"
         transform="matrix(0.04866479,0,0,-0.04866479,-738.21471,494.77279)">
        <path
           d="m 16300,4627.42 c 0,-15.45 -12.5,-27.98 -28,-27.98 h -144.8 c -15.5,0 -28,12.53 -28,27.98 0,15.45 12.5,27.98 28,27.98 h 144.8 c 15.5,0 28,-12.53 28,-27.98"
           style="fill:#40413c;fill-opacity:1;fill-rule:nonzero;stroke:none"
           id="path80"
           inkscape:connector-curvature="0" />
      </g>
      <g
         id="g82"
         transform="matrix(0.05119071,0,0,-0.05119071,-738.21471,494.77279)">
        <path
           d="m 15911.9,4444.44 140.8,65.74 247.3,-9.38 -6.3,-34.43 -228.4,15.61 -125.2,-87.62 -28.2,50.08"
           style="fill:#8e1616;fill-opacity:1;fill-rule:nonzero;stroke:none"
           id="path84"
           inkscape:connector-curvature="0" />
      </g>
      <g
         id="g86"
         transform="matrix(0.04652194,0,0,-0.04652194,-738.21471,494.77279)">
        <path
           d="m 16300,4885.14 -152.4,77.68 -272.2,-0.8 5.6,-38.09 251.8,8.4 134.3,-101.18 32.9,53.99"
           style="fill:#8e1616;fill-opacity:1;fill-rule:nonzero;stroke:none"
           id="path88"
           inkscape:connector-curvature="0" />
      </g>
      <g
         id="g90"
         transform="matrix(0.04644353,0,0,-0.04644353,-738.21471,494.77279)">
        <path
           d="m 16300,5695.57 c 0,-19.05 -15.4,-34.49 -34.5,-34.49 -19,0 -34.5,15.44 -34.5,34.49 v 106.94 c 0,19.05 15.5,34.49 34.5,34.49 19.1,0 34.5,-15.44 34.5,-34.49 v -106.94"
           style="fill:#40413c;fill-opacity:1;fill-rule:nonzero;stroke:none"
           id="path92"
           inkscape:connector-curvature="0" />
      </g>
      <g
         id="g94"
         transform="matrix(0.0500211,0,0,-0.0500211,-738.21471,494.77279)">
        <path
           d="m 16300,5299.43 c 0,-17.69 -14.3,-32.03 -32,-32.03 -17.7,0 -32,14.34 -32,32.03 v 99.28 c 0,17.69 14.3,32.03 32,32.03 17.7,0 32,-14.34 32,-32.03 v -99.28"
           style="fill:#40413c;fill-opacity:1;fill-rule:nonzero;stroke:none"
           id="path96"
           inkscape:connector-curvature="0" />
      </g>
      <g
         id="g98"
         transform="matrix(0.0480129,0,0,-0.0480129,-738.21471,494.77279)">
        <path
           d="m 16300,4907.67 -79,-7.77 -1.1,730.74 80.1,5.56 v -728.53"
           style="fill:#d3d3d3;fill-opacity:1;fill-rule:nonzero;stroke:none"
           id="path100"
           inkscape:connector-curvature="0" />
      </g>
      <g
         id="g102"
         transform="matrix(0.04886143,0,0,-0.04886143,-738.21471,494.77279)">
        <path
           d="m 16300,4814.8 -78.7,7.64 -2.2,721.35 76.5,-6.57 4.4,-722.42"
           style="fill:#d3d3d3;fill-opacity:1;fill-rule:nonzero;stroke:none"
           id="path104"
           inkscape:connector-curvature="0" />
      </g>
      <g
         id="g106"
         transform="matrix(0.04750488,0,0,-0.04750488,-738.21471,494.77279)">
        <path
           d="m 16300,4551.5 c 0,-53.07 -43,-96.09 -96.1,-96.09 -53.1,0 -96.1,43.02 -96.1,96.09 0,53.13 43,96.15 96.1,96.15 53.1,0 96.1,-43.02 96.1,-96.15"
           style="fill:#40413c;fill-opacity:1;fill-rule:nonzero;stroke:none"
           id="path108"
           inkscape:connector-curvature="0" />
      </g>
      <g
         id="g110"
         transform="matrix(0.04742498,0,0,-0.04742498,-738.21471,494.77279)">
        <path
           d="m 16300,4559.18 c 0,-37.94 -30.8,-68.75 -68.8,-68.75 -38,0 -68.7,30.81 -68.7,68.75 0,38 30.7,68.81 68.7,68.81 38,0 68.8,-30.81 68.8,-68.81"
           style="fill:#4848cc;fill-opacity:1;fill-rule:nonzero;stroke:none"
           id="path112"
           inkscape:connector-curvature="0" />
      </g>
      <g
         id="g114"
         transform="matrix(0.04727937,0,0,-0.04727937,-738.21471,494.77279)">
        <path
           d="m 16268,4581.38 c 6.5,14.06 24.2,25.95 32,38.27 l -10,2.53 c -67.8,8.95 -89.6,-91.5 -15.4,-87.45 -1.7,19.8 -16.5,25.38 -6.6,46.65"
           style="fill:#2974e2;fill-opacity:1;fill-rule:nonzero;stroke:none"
           id="path116"
           inkscape:connector-curvature="0" />
      </g>
      <g
         id="g118"
         transform="matrix(0.0497361,0,0,-0.0497361,-738.21471,494.77279)">
        <path
           d="m 16300,4347.32 c 0,-50.69 -41.1,-91.78 -91.8,-91.78 -50.7,0 -91.8,41.09 -91.8,91.78 0,50.75 41.1,91.84 91.8,91.84 50.7,0 91.8,-41.09 91.8,-91.84"
           style="fill:#40413c;fill-opacity:1;fill-rule:nonzero;stroke:none"
           id="path120"
           inkscape:connector-curvature="0" />
      </g>
      <g
         id="g122"
         transform="matrix(0.04965619,0,0,-0.04965619,-738.21471,494.77279)">
        <path
           d="m 16300,4354.33 c 0,-36.24 -29.4,-65.67 -65.7,-65.67 -36.3,0 -65.7,29.43 -65.7,65.67 0,36.29 29.4,65.72 65.7,65.72 36.3,0 65.7,-29.43 65.7,-65.72"
           style="fill:#4848cc;fill-opacity:1;fill-rule:nonzero;stroke:none"
           id="path124"
           inkscape:connector-curvature="0" />
      </g>
      <g
         id="g126"
         transform="matrix(0.04951058,0,0,-0.04951058,-738.21471,494.77279)">
        <path
           d="m 16269.4,4374.92 c 6.2,13.42 23.1,24.79 30.6,36.55 l -9.6,2.41 c -64.7,8.55 -85.5,-87.37 -14.7,-83.5 -1.6,18.9 -15.8,24.23 -6.3,44.54"
           style="fill:#2974e2;fill-opacity:1;fill-rule:nonzero;stroke:none"
           id="path128"
           inkscape:connector-curvature="0" />
      </g>
      <g
         transform="matrix(1,0,0,1.2527699,0,-86.91173)"
         id="g2955">
        <g
           transform="matrix(0.05093509,0,0,-0.05093509,-738.21471,494.77279)"
           id="g22">
          <path
             inkscape:connector-curvature="0"
             id="path24"
             style="fill:#d81513;fill-opacity:1;fill-rule:nonzero;stroke:none"
             d="M 16300,358.983 H 14626.7 V 2963.29 H 16300 V 358.983" />
        </g>
        <g
           transform="matrix(0.04729879,0,0,-0.04729879,-738.21471,494.77279)"
           id="g130">
          <path
             inkscape:connector-curvature="0"
             id="path132"
             style="fill:#cdc4bd;fill-opacity:1;fill-rule:nonzero;stroke:none"
             d="m 16300,359.481 c 0,-14.947 -12.2,-27.102 -27.1,-27.102 -15,0 -27.1,12.155 -27.1,27.102 V 3157.28 c 0,14.94 12.1,27.1 27.1,27.1 14.9,0 27.1,-12.16 27.1,-27.1 V 359.481" />
        </g>
        <g
           transform="matrix(0.04883181,0,0,-0.04883181,-738.21471,494.77279)"
           id="g134">
          <path
             inkscape:connector-curvature="0"
             id="path136"
             style="fill:#cdc4bd;fill-opacity:1;fill-rule:nonzero;stroke:none"
             d="m 16300,348.194 c 0,-14.477 -11.7,-26.251 -26.2,-26.251 -14.5,0 -26.3,11.774 -26.3,26.251 V 3058.15 c 0,14.47 11.8,26.25 26.3,26.25 14.5,0 26.2,-11.78 26.2,-26.25 V 348.194" />
        </g>
        <g
           transform="matrix(0.04878601,0,0,-0.04878601,-738.21471,494.77279)"
           id="g138">
          <path
             inkscape:connector-curvature="0"
             id="path140"
             style="fill:#cdc4bd;fill-opacity:1;fill-rule:nonzero;stroke:none"
             d="m 16300,2984.39 h -512.3 v 30.66 h 512.3 v -30.66" />
        </g>
        <g
           transform="matrix(0.04877282,0,0,-0.04877282,-738.21471,494.77279)"
           id="g142">
          <path
             inkscape:connector-curvature="0"
             id="path144"
             style="fill:#cdc4bd;fill-opacity:1;fill-rule:nonzero;stroke:none"
             d="m 16300,2790.14 h -512.4 v 30.62 h 512.4 v -30.62" />
        </g>
        <g
           transform="matrix(0.04877282,0,0,-0.04877282,-738.21471,494.77279)"
           id="g146">
          <path
             inkscape:connector-curvature="0"
             id="path148"
             style="fill:#cdc4bd;fill-opacity:1;fill-rule:nonzero;stroke:none"
             d="m 16300,2595.04 h -512.4 v 30.67 h 512.4 v -30.67" />
        </g>
        <g
           transform="matrix(0.04874668,0,0,-0.04874668,-738.21471,494.77279)"
           id="g150">
          <path
             inkscape:connector-curvature="0"
             id="path152"
             style="fill:#cdc4bd;fill-opacity:1;fill-rule:nonzero;stroke:none"
             d="m 16300,2401.27 h -512.7 v 30.69 h 512.7 v -30.69" />
        </g>
        <g
           transform="matrix(0.04873374,0,0,-0.04873374,-738.21471,494.77279)"
           id="g154">
          <path
             inkscape:connector-curvature="0"
             id="path156"
             style="fill:#cdc4bd;fill-opacity:1;fill-rule:nonzero;stroke:none"
             d="m 16300,2206.71 h -512.8 v 30.69 h 512.8 v -30.69" />
        </g>
        <g
           transform="matrix(0.04878601,0,0,-0.04878601,-738.21471,494.77279)"
           id="g158">
          <path
             inkscape:connector-curvature="0"
             id="path160"
             style="fill:#cdc4bd;fill-opacity:1;fill-rule:nonzero;stroke:none"
             d="m 16300,2009.34 h -512.3 V 2040 h 512.3 v -30.66" />
        </g>
        <g
           transform="matrix(0.04882534,0,0,-0.04882534,-738.21471,494.77279)"
           id="g162">
          <path
             inkscape:connector-curvature="0"
             id="path164"
             style="fill:#cdc4bd;fill-opacity:1;fill-rule:nonzero;stroke:none"
             d="m 16300,1812.87 h -511.9 v 30.59 h 511.9 v -30.59" />
        </g>
        <g
           transform="matrix(0.0487992,0,0,-0.0487992,-738.21471,494.77279)"
           id="g166">
          <path
             inkscape:connector-curvature="0"
             id="path168"
             style="fill:#cdc4bd;fill-opacity:1;fill-rule:nonzero;stroke:none"
             d="m 16300,1618.85 h -512.2 v 30.66 h 512.2 v -30.66" />
        </g>
        <g
           transform="matrix(0.04878601,0,0,-0.04878601,-738.21471,494.77279)"
           id="g170">
          <path
             inkscape:connector-curvature="0"
             id="path172"
             style="fill:#cdc4bd;fill-opacity:1;fill-rule:nonzero;stroke:none"
             d="m 16300,1424.29 h -512.3 v 30.66 h 512.3 v -30.66" />
        </g>
        <g
           transform="matrix(0.0488124,0,0,-0.0488124,-738.21471,494.77279)"
           id="g174">
          <path
             inkscape:connector-curvature="0"
             id="path176"
             style="fill:#cdc4bd;fill-opacity:1;fill-rule:nonzero;stroke:none"
             d="m 16300,1228.62 h -512 v 30.65 h 512 v -30.65" />
        </g>
        <g
           transform="matrix(0.04878601,0,0,-0.04878601,-738.21471,494.77279)"
           id="g178">
          <path
             inkscape:connector-curvature="0"
             id="path180"
             style="fill:#cdc4bd;fill-opacity:1;fill-rule:nonzero;stroke:none"
             d="m 16300,1034.29 h -512.3 v 30.61 h 512.3 v -30.61" />
        </g>
        <g
           transform="matrix(0.04877282,0,0,-0.04877282,-738.21471,494.77279)"
           id="g182">
          <path
             inkscape:connector-curvature="0"
             id="path184"
             style="fill:#cdc4bd;fill-opacity:1;fill-rule:nonzero;stroke:none"
             d="m 16300,839.512 h -512.4 v 30.62 h 512.4 v -30.62" />
        </g>
        <g
           transform="matrix(0.04877282,0,0,-0.04877282,-738.21471,494.77279)"
           id="g186">
          <path
             inkscape:connector-curvature="0"
             id="path188"
             style="fill:#cdc4bd;fill-opacity:1;fill-rule:nonzero;stroke:none"
             d="m 16300,644.408 h -512.4 v 30.672 h 512.4 v -30.672" />
        </g>
        <g
           transform="matrix(0.04875963,0,0,-0.04875963,-738.21471,494.77279)"
           id="g190">
          <path
             inkscape:connector-curvature="0"
             id="path192"
             style="fill:#cdc4bd;fill-opacity:1;fill-rule:nonzero;stroke:none"
             d="m 16300,449.477 h -512.5 v 30.68 h 512.5 v -30.68" />
        </g>
        <g
           transform="matrix(0.04953199,0,0,-0.04953199,-738.21471,494.77279)"
           id="g194">
          <path
             inkscape:connector-curvature="0"
             id="path196"
             style="fill:#cdc4bd;fill-opacity:1;fill-rule:nonzero;stroke:none"
             d="m 16300,334.679 c 0,-14.322 -6.2,-25.88 -13.8,-25.88 -7.7,0 -13.9,11.558 -13.9,25.88 V 3006.28 c 0,14.27 6.2,25.88 13.9,25.88 7.6,0 13.8,-11.61 13.8,-25.88 V 334.679" />
        </g>
        <g
           transform="matrix(0.05035214,0,0,-0.05035214,-738.21471,494.77279)"
           id="g198">
          <path
             inkscape:connector-curvature="0"
             id="path200"
             style="fill:#cdc4bd;fill-opacity:1;fill-rule:nonzero;stroke:none"
             d="m 16300,329.227 c 0,-14.089 -6.1,-25.458 -13.6,-25.458 -7.6,0 -13.6,11.369 -13.6,25.458 V 2957.31 c 0,14.04 6,25.46 13.6,25.46 7.5,0 13.6,-11.42 13.6,-25.46 V 329.227" />
        </g>
        <g
           transform="matrix(0.0503275,0,0,-0.0503275,-738.21471,494.77279)"
           id="g202">
          <path
             inkscape:connector-curvature="0"
             id="path204"
             style="fill:#cdc4bd;fill-opacity:1;fill-rule:nonzero;stroke:none"
             d="m 16300,2884.47 h -265.6 v 29.72 h 265.6 v -29.72" />
        </g>
        <g
           transform="matrix(0.05032053,0,0,-0.05032053,-738.21471,494.77279)"
           id="g206">
          <path
             inkscape:connector-curvature="0"
             id="path208"
             style="fill:#cdc4bd;fill-opacity:1;fill-rule:nonzero;stroke:none"
             d="m 16300,2695.82 h -265.7 v 29.73 h 265.7 v -29.73" />
        </g>
        <g
           transform="matrix(0.05032053,0,0,-0.05032053,-738.21471,494.77279)"
           id="g210">
          <path
             inkscape:connector-curvature="0"
             id="path212"
             style="fill:#cdc4bd;fill-opacity:1;fill-rule:nonzero;stroke:none"
             d="m 16300,2506.76 h -265.7 v 29.73 h 265.7 v -29.73" />
        </g>
        <g
           transform="matrix(0.05030659,0,0,-0.05030659,-738.21471,494.77279)"
           id="g214">
          <path
             inkscape:connector-curvature="0"
             id="path216"
             style="fill:#cdc4bd;fill-opacity:1;fill-rule:nonzero;stroke:none"
             d="m 16300,2318.36 h -265.7 v 29.69 h 265.7 v -29.69" />
        </g>
        <g
           transform="matrix(0.05029937,0,0,-0.05029937,-738.21471,494.77279)"
           id="g218">
          <path
             inkscape:connector-curvature="0"
             id="path220"
             style="fill:#cdc4bd;fill-opacity:1;fill-rule:nonzero;stroke:none"
             d="m 16300,2129.5 h -265.7 v 29.74 h 265.7 v -29.74" />
        </g>
        <g
           transform="matrix(0.0503275,0,0,-0.0503275,-738.21471,494.77279)"
           id="g222">
          <path
             inkscape:connector-curvature="0"
             id="path224"
             style="fill:#cdc4bd;fill-opacity:1;fill-rule:nonzero;stroke:none"
             d="m 16300,1939.28 h -265.6 v 29.73 h 265.6 v -29.73" />
        </g>
        <g
           transform="matrix(0.05034866,0,0,-0.05034866,-738.21471,494.77279)"
           id="g226">
          <path
             inkscape:connector-curvature="0"
             id="path228"
             style="fill:#cdc4bd;fill-opacity:1;fill-rule:nonzero;stroke:none"
             d="m 16300,1749.52 h -265.5 v 29.72 h 265.5 v -29.72" />
        </g>
        <g
           transform="matrix(0.05033447,0,0,-0.05033447,-738.21471,494.77279)"
           id="g230">
          <path
             inkscape:connector-curvature="0"
             id="path232"
             style="fill:#cdc4bd;fill-opacity:1;fill-rule:nonzero;stroke:none"
             d="m 16300,1561.01 h -265.6 v 29.67 h 265.6 v -29.67" />
        </g>
        <g
           transform="matrix(0.0503275,0,0,-0.0503275,-738.21471,494.77279)"
           id="g234">
          <path
             inkscape:connector-curvature="0"
             id="path236"
             style="fill:#cdc4bd;fill-opacity:1;fill-rule:nonzero;stroke:none"
             d="m 16300,1372.2 h -265.6 v 29.68 h 265.6 v -29.68" />
        </g>
        <g
           transform="matrix(0.05034168,0,0,-0.05034168,-738.21471,494.77279)"
           id="g238">
          <path
             inkscape:connector-curvature="0"
             id="path240"
             style="fill:#cdc4bd;fill-opacity:1;fill-rule:nonzero;stroke:none"
             d="m 16300,1182.79 h -265.6 v 29.72 h 265.6 v -29.72" />
        </g>
        <g
           transform="matrix(0.0503275,0,0,-0.0503275,-738.21471,494.77279)"
           id="g242">
          <path
             inkscape:connector-curvature="0"
             id="path244"
             style="fill:#cdc4bd;fill-opacity:1;fill-rule:nonzero;stroke:none"
             d="m 16300,994.098 h -265.6 v 29.722 h 265.6 v -29.722" />
        </g>
        <g
           transform="matrix(0.05032053,0,0,-0.05032053,-738.21471,494.77279)"
           id="g246">
          <path
             inkscape:connector-curvature="0"
             id="path248"
             style="fill:#cdc4bd;fill-opacity:1;fill-rule:nonzero;stroke:none"
             d="m 16300,805.184 h -265.7 v 29.729 h 265.7 v -29.729" />
        </g>
        <g
           transform="matrix(0.05032053,0,0,-0.05032053,-738.21471,494.77279)"
           id="g250">
          <path
             inkscape:connector-curvature="0"
             id="path252"
             style="fill:#cdc4bd;fill-opacity:1;fill-rule:nonzero;stroke:none"
             d="m 16300,616.131 h -265.7 v 29.679 h 265.7 v -29.679" />
        </g>
        <g
           transform="matrix(0.05031356,0,0,-0.05031356,-738.21471,494.77279)"
           id="g254">
          <path
             inkscape:connector-curvature="0"
             id="path256"
             style="fill:#cdc4bd;fill-opacity:1;fill-rule:nonzero;stroke:none"
             d="m 16300,427.087 h -265.7 v 29.733 h 265.7 v -29.733" />
        </g>
      </g>
    </g>
  </g>
</svg>
