<?xml version="1.0" encoding="UTF-8" standalone="no"?>
<!-- Created with Inkscape (http://www.inkscape.org/) -->

<svg
   xmlns:dc="http://purl.org/dc/elements/1.1/"
   xmlns:cc="http://creativecommons.org/ns#"
   xmlns:rdf="http://www.w3.org/1999/02/22-rdf-syntax-ns#"
   xmlns:svg="http://www.w3.org/2000/svg"
   xmlns="http://www.w3.org/2000/svg"
   xmlns:sodipodi="http://sodipodi.sourceforge.net/DTD/sodipodi-0.dtd"
   xmlns:inkscape="http://www.inkscape.org/namespaces/inkscape"
   width="100"
   height="200"
   viewBox="0 0 26.458333 52.916667"
   version="1.1"
   id="svg1358"
   sodipodi:docname="purple1.svg"
   inkscape:version="0.92.4 (5da689c313, 2019-01-14)">
  <defs
     id="defs1352" />
  <sodipodi:namedview
     id="base"
     pagecolor="#ffffff"
     bordercolor="#666666"
     borderopacity="1.0"
     inkscape:pageopacity="0.0"
     inkscape:pageshadow="2"
     inkscape:zoom="3.959798"
     inkscape:cx="-35.499778"
     inkscape:cy="87.459166"
     inkscape:document-units="mm"
     inkscape:current-layer="layer1"
     showgrid="false"
     units="px"
     scale-x="1"
     inkscape:window-width="1920"
     inkscape:window-height="1023"
     inkscape:window-x="0"
     inkscape:window-y="28"
     inkscape:window-maximized="1" />
  <metadata
     id="metadata1355">
    <rdf:RDF>
      <cc:Work
         rdf:about="">
        <dc:format>image/svg+xml</dc:format>
        <dc:type
           rdf:resource="http://purl.org/dc/dcmitype/StillImage" />
        <dc:title />
      </cc:Work>
    </rdf:RDF>
  </metadata>
  <g
     inkscape:label="Calque 1"
     inkscape:groupmode="layer"
     id="layer1"
     transform="translate(0,-244.08332)">
    <path
       inkscape:connector-curvature="0"
       id="path846"
       style="fill:#ff00ff;fill-opacity:1;fill-rule:nonzero;stroke:none;stroke-width:0.02846708"
       d="m 2.2302365,253.14998 -0.093088,1.04189 v 34.65067 c 0,3.18954 2.0743955,6.00832 5.1198039,6.95687 0.7014292,0.21859 1.4321791,0.32959 2.1669133,0.32959 H 13.229061 V 244.9543 H 11.18911 c -4.6577824,0 -8.5452473,3.55611 -8.9588738,8.19568" />
    <path
       inkscape:connector-curvature="0"
       id="path848"
       style="fill:#dd00dd;fill-opacity:1;fill-rule:nonzero;stroke:none;stroke-width:0.02846708"
       d="m 3.5841306,249.15121 c -0.7412825,1.17284 -1.2229454,2.53043 -1.3538941,3.99877 l -0.093088,1.04189 v 34.65067 c 0,1.61127 0.5303418,3.12682 1.4469813,4.35547 v -44.0468" />
    <path
       inkscape:connector-curvature="0"
       id="path850"
       style="fill:#dd00dd;fill-opacity:1;fill-rule:nonzero;stroke:none;stroke-width:0.02846708"
       d="m 3.5639192,276.85935 c -0.3558383,0.43014 -0.8682458,0.82725 -1.4267698,0.98667 v 10.99652 c 0,1.61127 0.5303417,3.12682 1.4469812,4.35547 v -16.36769 l -0.020214,0.029" />
    <path
       inkscape:connector-curvature="0"
       id="path852"
       style="fill:#dd00dd;fill-opacity:1;fill-rule:nonzero;stroke:none;stroke-width:0.02846708"
       d="m 3.5445615,261.18879 c 0,-1.39004 0.4976049,-6.70996 1.0777639,-8.70523 0.6832093,-2.34967 1.463492,-4.74745 2.9508969,-6.77061 -2.9190139,1.28359 -5.0432275,4.07507 -5.3429858,7.43703 l -0.093088,1.04189 v 6.31058 c 0.6564505,0.1543 1.3063542,0.46972 1.4074121,0.68634" />
    <path
       inkscape:connector-curvature="0"
       id="path856"
       style="fill:#dd00dd;fill-opacity:1;fill-rule:nonzero;stroke:none;stroke-width:0.02846708"
       d="m 7.2569532,293.3281 v 0 c -3.0454084,-0.94853 -5.1198038,-3.76734 -5.1198038,-6.95675 v 2.47119 c 0,3.18954 2.0743954,6.00832 5.1198038,6.95687 v 0 C 7.9583819,296.018 8.6891318,296.129 9.423867,296.129 h 3.805194 v -2.4712 H 9.423867 c -0.7347352,0 -1.4654851,-0.11108 -2.1669138,-0.3297" />
    <path
       inkscape:connector-curvature="0"
       id="path858"
       style="fill:#d9392b;fill-opacity:1;fill-rule:nonzero;stroke:none;stroke-width:0.02846708"
       d="m 6.7849687,293.81637 c -1.4484047,-0.51218 -2.677328,-1.40523 -3.5805885,-2.55302 0.7168007,1.85381 2.2443446,3.32553 4.2361859,3.94614 l 0.042703,0.0118 c 0,0 -0.489349,-1.32317 -0.6982975,-1.4048" />
    <path
       inkscape:connector-curvature="0"
       id="path860"
       style="fill:#d9392b;fill-opacity:1;fill-rule:nonzero;stroke:none;stroke-width:0.02846708"
       d="m 13.229061,295.06971 v -0.79397 H 9.7432672 c 0.4768238,0.94541 3.4857938,0.79397 3.4857938,0.79397" />
    <path
       inkscape:connector-curvature="0"
       id="path862"
       style="fill:#f8f8f8;fill-opacity:1;fill-rule:nonzero;stroke:none;stroke-width:0.02846708"
       d="m 6.9839539,246.00303 c -2.0174618,1.06951 -3.5879906,2.88315 -4.3261421,5.0976 0.032455,-0.0137 0.8682465,-1.5395 1.9334842,-2.78266 1.0837417,-1.26479 2.3966433,-2.24803 2.3926579,-2.31494" />
    <path
       inkscape:connector-curvature="0"
       id="path864"
       style="fill:#dd00dd;fill-opacity:1;fill-rule:nonzero;stroke:none;stroke-width:0.02846708"
       d="m 2.5234473,263.71753 c 0,-0.24624 -0.2240359,-0.43042 -0.4662908,-0.38659 -0.7555161,0.13665 -1.43246267,0.57276 -1.86630148,1.22351 l -0.15742289,0.23629 c -0.16653238,0.24966 -0.20610151,0.56336 -0.10675182,0.84661 0.0532341,0.15087 0.22602901,0.22205 0.36978795,0.15173 l 2.22697904,-1.08717 v -0.98438" />
    <path
       inkscape:connector-curvature="0"
       id="path868"
       style="fill:#363635;fill-opacity:1;fill-rule:nonzero;stroke:none;stroke-width:0.02551564"
       d="m 13.229061,282.09008 h -3.159562 c -3.6036455,0 -6.5249375,-2.34696 -6.5249375,-5.24206 v -15.65923 l 1.0638151,5.48725 v 0 c 1.5853312,-0.5825 3.3036039,-0.89513 5.046928,-0.918 l 3.5737564,-0.0471 v 16.37917"
       sodipodi:nodetypes="csscccccc" />
    <path
       inkscape:connector-curvature="0"
       id="path872"
       style="fill:#2e2d2c;fill-opacity:1;fill-rule:nonzero;stroke:none;stroke-width:0.02846708"
       d="m 12.272568,257.20739 c -1.331976,0 -2.662526,0.0997 -3.9796984,0.29805 l -0.6111882,0.0919 c -1.8324251,0.27611 -3.2503703,1.74958 -3.4556181,3.59139 l 0.7737353,4.52143 c 0.040138,0.23401 0.1693792,0.44352 0.3603935,0.58443 0.2277363,0.16824 0.5192389,0.21805 0.792808,0.14547 1.2331936,-0.32737 2.5019721,-0.50957 3.7798581,-0.54144 l 3.2962028,-0.0825 v -8.60873 h -0.956493" />
    <path
       inkscape:connector-curvature="0"
       id="path874"
       style="fill:#363635;fill-opacity:1;fill-rule:nonzero;stroke:none;stroke-width:0.02846708"
       d="m 13.229061,264.26068 v -7.05329 h -0.956493 c -1.331976,0 -2.662526,0.0997 -3.9796984,0.29805 l -0.6111882,0.0919 c -1.8324251,0.27611 -3.2503703,1.74958 -3.4556181,3.59139 l 0.5257873,3.07189 h 8.4772104" />
    <path
       inkscape:connector-curvature="0"
       id="path876"
       style="fill:#2e2d2c;fill-opacity:1;fill-rule:nonzero;stroke:none;stroke-width:0.02846708"
       d="m 5.8956577,264.26068 c 0,0 0.1750723,-2.94891 2.3399936,-2.94891 h 0.7930933 c 0,0 2.2210004,-0.0113 2.2210004,2.94891 H 5.8956577" />
    <path
       inkscape:connector-curvature="0"
       id="path878"
       style="fill:#363635;fill-opacity:1;fill-rule:nonzero;stroke:none;stroke-width:0.02846708"
       d="m 10.820746,264.5704 v 0 c -1.4276233,0.42502 -2.9483341,0.42502 -4.3759585,0 v 0 -1.10765 c 0,-1.20843 0.9795519,-2.18827 2.1879798,-2.18827 v 0 c 1.2084277,0 2.1879787,0.97984 2.1879787,2.18827 v 1.10765" />
    <path
       inkscape:connector-curvature="0"
       id="path880"
       style="fill:#363635;fill-opacity:1;fill-rule:nonzero;stroke:none;stroke-width:0.02846708"
       d="m 10.826439,265.23454 h -0.279262 l -1.4284762,-1.42877 -0.279262,0.27927 1.1494994,1.1495 H 7.2765958 l 1.1495,-1.1495 -0.279262,-0.27927 -1.4284773,1.42877 H 6.4390944 c -0.1255397,0 -0.2274523,0.10193 -0.2274523,0.22773 0,0.12554 0.101913,0.22745 0.2274523,0.22745 h 4.3873446 c 0.12554,0 0.227453,-0.10193 0.227453,-0.22745 0,-0.12582 -0.101909,-0.22773 -0.227453,-0.22773" />
    <path
       inkscape:connector-curvature="0"
       id="path882"
       style="fill:#808182;fill-opacity:1;fill-rule:nonzero;stroke:none;stroke-width:0.02846708"
       d="M 6.533605,268.99702 H 6.2201819 c -0.4594583,0 -0.8423404,0.35186 -0.8813407,0.80962 l -0.066331,0.77516 c -0.041848,0.49048 -0.022207,0.98438 0.058358,1.47003 l 0.375196,2.25431 h 0.827538 v -5.30912" />
    <path
       inkscape:connector-curvature="0"
       id="path884"
       style="fill:#808182;fill-opacity:1;fill-rule:nonzero;stroke:none;stroke-width:0.02846708"
       d="m 10.815337,268.99702 h 0.313423 c 0.459458,0 0.842341,0.35186 0.881625,0.80962 l 0.06604,0.77516 c 0.04213,0.49048 0.02249,0.98438 -0.05836,1.47003 l -0.374911,2.25431 h -0.827823 v -5.30912" />
    <path
       inkscape:connector-curvature="0"
       id="path886"
       style="fill:#808182;fill-opacity:1;fill-rule:nonzero;stroke:none;stroke-width:0.02846708"
       d="m 5.2981334,274.02061 v 3.18376 c 0,0.49761 0.2411164,0.96418 0.6470568,1.25227 l 0.3899994,0.2767 c 0.3023203,0.21464 0.6641365,0.32993 1.0347781,0.32993 h 1.3046458 v -1.31318 l -3.3764801,-3.72948" />
    <path
       inkscape:connector-curvature="0"
       id="path888"
       style="fill:#67696a;fill-opacity:1;fill-rule:nonzero;stroke:none;stroke-width:0.02846708"
       d="m 6.533605,274.30614 -0.7216407,-0.47113 c -0.2300136,-0.15031 -0.5326189,0.0279 -0.5129763,0.30204 l 0.1448967,2.02201 c 0.027331,0.37918 0.2294447,0.72421 0.5471374,0.93344 l 0.5175314,0.34075 c 0.3142769,0.20667 0.6823564,0.31684 1.0584062,0.31684 h 1.1076538 v -3.44395 H 6.533605" />
    <path
       inkscape:connector-curvature="0"
       id="path890"
       style="fill:#808182;fill-opacity:1;fill-rule:nonzero;stroke:none;stroke-width:0.02846708"
       d="m 12.051093,274.02061 v 3.18376 c 0,0.49761 -0.241116,0.96418 -0.647056,1.25227 l -0.390285,0.2767 c -0.302319,0.21464 -0.663852,0.32993 -1.0347768,0.32993 H 8.6746135 v -1.31318 l 3.3764795,-3.72948" />
    <path
       inkscape:connector-curvature="0"
       id="path892"
       style="fill:#67696a;fill-opacity:1;fill-rule:nonzero;stroke:none;stroke-width:0.02846708"
       d="m 10.815337,274.30614 0.721641,-0.47113 c 0.230014,-0.15031 0.532619,0.0279 0.512976,0.30204 l -0.144898,2.02201 c -0.02703,0.37918 -0.229443,0.72421 -0.546852,0.93344 l -0.517815,0.34075 c -0.314277,0.20667 -0.682071,0.31684 -1.058406,0.31684 H 8.6746135 v -3.44395 h 2.1407235" />
    <path
       inkscape:connector-curvature="0"
       id="path894"
       style="fill:#67696a;fill-opacity:1;fill-rule:nonzero;stroke:none;stroke-width:0.02846708"
       d="M 10.815337,268.99702 H 6.533605 v 5.30912 h 4.281732 v -5.30912" />
    <path
       inkscape:connector-curvature="0"
       id="path896"
       style="fill:#4f5050;fill-opacity:1;fill-rule:nonzero;stroke:none;stroke-width:0.02846708"
       d="M 9.5639246,277.06062 H 7.7850172 c -0.5781661,0 -1.0598291,-0.44324 -1.1076532,-1.0197 l -0.143759,-1.73478 h 4.281732 l -0.143759,1.73478 c -0.04783,0.57646 -0.529486,1.0197 -1.1076534,1.0197" />
    <path
       inkscape:connector-curvature="0"
       id="path898"
       style="fill:#a7a5a6;fill-opacity:1;fill-rule:nonzero;stroke:none;stroke-width:0.02846708"
       d="m 6.8726477,278.16685 c -0.026193,-0.0572 -0.044979,-0.11843 -0.060634,-0.18077 0.015372,0.0624 0.034731,0.12327 0.060634,0.18077" />
    <path
       inkscape:connector-curvature="0"
       id="path900"
       style="fill:#a7a5a6;fill-opacity:1;fill-rule:nonzero;stroke:none;stroke-width:0.02846708"
       d="m 6.8011955,277.95163 c -0.015945,-0.0734 -0.024765,-0.14945 -0.024765,-0.22773 0,0.0782 0.00911,0.1543 0.024765,0.22773" />
    <path
       inkscape:connector-curvature="0"
       id="path902"
       style="fill:#918f90;fill-opacity:1;fill-rule:nonzero;stroke:none;stroke-width:0.02846708"
       d="M 7.7895723,276.44374 H 7.2048587 c -0.2365619,0 -0.4284299,0.19186 -0.4284299,0.42842 v 0.85174 c 0,0.0782 0.00882,0.1543 0.024765,0.22773 l 0.010821,0.0344 c 0.015655,0.0624 0.034449,0.12355 0.060634,0.18077 l 0.00743,0.014 c 0.061771,0.13094 0.1480285,0.24794 0.2539266,0.34473 0.3458749,-0.60492 0.6561662,-1.36926 0.6555973,-2.08179" />
    <path
       inkscape:connector-curvature="0"
       id="path904"
       style="fill:#a7a5a6;fill-opacity:1;fill-rule:nonzero;stroke:none;stroke-width:0.02846708"
       d="m 10.572514,277.7239 c 0,0.0782 -0.0088,0.1543 -0.02477,0.22773 0.01566,-0.0734 0.02477,-0.14945 0.02477,-0.22773" />
    <path
       inkscape:connector-curvature="0"
       id="path906"
       style="fill:#a7a5a6;fill-opacity:1;fill-rule:nonzero;stroke:none;stroke-width:0.02846708"
       d="m 10.537214,277.98608 c -0.01594,0.0624 -0.03473,0.12354 -0.06064,0.18077 0.02562,-0.0575 0.04498,-0.11843 0.06064,-0.18077" />
    <path
       inkscape:connector-curvature="0"
       id="path908"
       style="fill:#a7a5a6;fill-opacity:1;fill-rule:nonzero;stroke:none;stroke-width:0.02846708"
       d="M 9.5593705,276.44374 H 7.7895723 c 5.771e-4,0.71253 -0.3097219,1.47686 -0.6555969,2.08179 -0.1058972,-0.0968 -0.1921528,-0.2138 -0.2539265,-0.34473 0.17308,0.37206 0.5474222,0.6314 0.9849604,0.6314 h 0.8096042 0.8096032 c 0.4372545,0 0.8115963,-0.25934 0.9846773,-0.6314 -0.06177,0.13093 -0.14803,0.24795 -0.253927,0.34473 -0.3455898,-0.60493 -0.6558815,-1.36926 -0.6555965,-2.08179" />
    <path
       inkscape:connector-curvature="0"
       id="path910"
       style="fill:#918f90;fill-opacity:1;fill-rule:nonzero;stroke:none;stroke-width:0.02846708"
       d="m 10.537214,277.98608 0.01053,-0.0344 c 0.01594,-0.0734 0.02477,-0.14945 0.02477,-0.22773 v -0.85173 c 0,-0.23656 -0.191584,-0.42844 -0.428146,-0.42844 H 9.5593684 c -2.778e-4,0.71254 0.3100058,1.47687 0.6555966,2.0818 0.105897,-0.0968 0.192152,-0.21379 0.253927,-0.34474 l 0.0077,-0.014 c 0.0259,-0.0572 0.04469,-0.11842 0.06064,-0.18076" />
    <path
       inkscape:connector-curvature="0"
       id="path912"
       style="fill:#ff00ff;fill-opacity:1;fill-rule:nonzero;stroke:none;stroke-width:0.02846708"
       d="m 24.228172,253.14998 0.09308,1.04189 v 34.65067 c 0,3.18954 -2.074395,6.00832 -5.119804,6.95687 v 0 c -0.701429,0.21859 -1.43218,0.32959 -2.166914,0.32959 h -3.805475 v -51.1747 h 2.040235 c 4.657784,0 8.545247,3.55611 8.958876,8.19568" />
    <path
       inkscape:connector-curvature="0"
       id="path914"
       style="fill:#dd00dd;fill-opacity:1;fill-rule:nonzero;stroke:none;stroke-width:0.02846708"
       d="m 22.874276,249.15121 c 0.740999,1.17284 1.222945,2.53043 1.353896,3.99877 l 0.09308,1.04189 v 34.65067 c 0,1.61127 -0.530342,3.12682 -1.446982,4.35547 v -44.0468" />
    <path
       inkscape:connector-curvature="0"
       id="path916"
       style="fill:#dd00dd;fill-opacity:1;fill-rule:nonzero;stroke:none;stroke-width:0.02846708"
       d="m 22.894488,276.85935 c 0.355839,0.43014 0.868246,0.82725 1.42677,0.98667 v 10.99652 c 0,1.61127 -0.530342,3.12682 -1.446982,4.35547 v -16.36769 l 0.02022,0.029" />
    <path
       inkscape:connector-curvature="0"
       id="path918"
       style="fill:#dd00dd;fill-opacity:1;fill-rule:nonzero;stroke:none;stroke-width:0.02846708"
       d="m 22.913846,261.18879 c 0,-1.39004 -0.497605,-6.70996 -1.077764,-8.70523 -0.683495,-2.34967 -1.463492,-4.74745 -2.950897,-6.77061 2.919013,1.28359 5.043227,4.07507 5.342987,7.43703 l 0.09308,1.04189 v 6.31058 c -0.656452,0.1543 -1.306355,0.46972 -1.407412,0.68634" />
    <path
       inkscape:connector-curvature="0"
       id="path922"
       style="fill:#dd00dd;fill-opacity:1;fill-rule:nonzero;stroke:none;stroke-width:0.02846708"
       d="m 19.201454,293.3281 v 0 c 3.045409,-0.94853 5.119804,-3.76734 5.119804,-6.95675 v 2.47119 c 0,3.18954 -2.074395,6.00832 -5.119804,6.95687 v 0 c -0.701429,0.21859 -1.43218,0.32959 -2.166914,0.32959 h -3.805479 v -2.4712 h 3.805479 c 0.734734,0 1.465485,-0.11108 2.166914,-0.3297" />
    <path
       inkscape:connector-curvature="0"
       id="path924"
       style="fill:#d9392b;fill-opacity:1;fill-rule:nonzero;stroke:none;stroke-width:0.02846708"
       d="m 19.673438,293.81637 c 1.448405,-0.51218 2.677328,-1.40523 3.580589,-2.55302 -0.716801,1.85381 -2.244344,3.32553 -4.236185,3.94614 l -0.0427,0.0118 c 0,0 0.48935,-1.32317 0.698298,-1.4048" />
    <path
       inkscape:connector-curvature="0"
       id="path926"
       style="fill:#d9392b;fill-opacity:1;fill-rule:nonzero;stroke:none;stroke-width:0.02846708"
       d="m 13.229061,295.06971 v -0.79397 h 3.486078 c -0.476823,0.94541 -3.486078,0.79397 -3.486078,0.79397" />
    <path
       inkscape:connector-curvature="0"
       id="path928"
       style="fill:#f8f8f8;fill-opacity:1;fill-rule:nonzero;stroke:none;stroke-width:0.02846708"
       d="m 19.474453,246.00303 c 2.017462,1.06951 3.587992,2.88315 4.326142,5.0976 -0.03246,-0.0137 -0.868246,-1.5395 -1.933485,-2.78266 -1.083741,-1.26479 -2.396642,-2.24803 -2.392657,-2.31494" />
    <path
       inkscape:connector-curvature="0"
       id="path930"
       style="fill:#dd00dd;fill-opacity:1;fill-rule:nonzero;stroke:none;stroke-width:0.02846708"
       d="m 23.934958,263.71753 c 0,-0.24624 0.224038,-0.43042 0.466291,-0.38659 0.755518,0.13665 1.432466,0.57276 1.866304,1.22351 l 0.157421,0.23629 c 0.166533,0.24966 0.206101,0.56336 0.106469,0.84661 -0.05296,0.15087 -0.225746,0.22205 -0.369787,0.15173 l -2.226698,-1.08717 v -0.98438" />
    <path
       inkscape:connector-curvature="0"
       id="path934"
       style="fill:#363635;fill-opacity:1;fill-rule:nonzero;stroke:none;stroke-width:0.02551566"
       d="m 13.229061,282.09012 h 3.159845 c 3.603648,0 6.52494,-2.34697 6.52494,-5.24207 v -15.65926 l -1.063815,5.48727 c -1.585332,-0.58251 -3.303604,-0.89514 -5.046928,-0.91801 l -3.574042,-0.0471 v 16.3792" />
    <path
       inkscape:connector-curvature="0"
       id="path938"
       style="fill:#2e2d2c;fill-opacity:1;fill-rule:nonzero;stroke:none;stroke-width:0.02846708"
       d="m 14.18584,257.20739 c 1.331974,0 2.662525,0.0997 3.979697,0.29805 l 0.610903,0.0919 c 1.832711,0.27611 3.250654,1.74958 3.455904,3.59139 l -0.773735,4.52143 c -0.04014,0.23401 -0.169381,0.44352 -0.360394,0.58443 -0.227737,0.16824 -0.519239,0.21805 -0.792808,0.14547 -1.233194,-0.32737 -2.501971,-0.50957 -3.779859,-0.54144 l -3.296487,-0.0825 v -8.60873 h 0.956779" />
    <path
       inkscape:connector-curvature="0"
       id="path940"
       style="fill:#363635;fill-opacity:1;fill-rule:nonzero;stroke:none;stroke-width:0.02846708"
       d="m 13.229061,264.26068 v -7.05329 h 0.956779 c 1.331974,0 2.662525,0.0997 3.979697,0.29805 l 0.610903,0.0919 c 1.832711,0.27611 3.250654,1.74958 3.455904,3.59139 l -0.525787,3.07189 h -8.477496" />
    <path
       inkscape:connector-curvature="0"
       id="path942"
       style="fill:#808182;fill-opacity:1;fill-rule:nonzero;stroke:none;stroke-width:0.02846708"
       d="m 19.924803,268.99702 h 0.313422 c 0.459458,0 0.842341,0.35186 0.88134,0.80962 l 0.06634,0.77516 c 0.04184,0.49048 0.0222,0.98438 -0.05865,1.47003 l -0.374915,2.25431 h -0.827538 v -5.30912" />
    <path
       inkscape:connector-curvature="0"
       id="path944"
       style="fill:#808182;fill-opacity:1;fill-rule:nonzero;stroke:none;stroke-width:0.02846708"
       d="m 15.643069,268.99702 h -0.313422 c -0.459459,0 -0.84234,0.35186 -0.881626,0.80962 l -0.06634,0.77516 c -0.04184,0.49048 -0.0222,0.98438 0.05865,1.47003 l 0.374911,2.25431 h 0.827823 v -5.30912" />
    <path
       inkscape:connector-curvature="0"
       id="path946"
       style="fill:#808182;fill-opacity:1;fill-rule:nonzero;stroke:none;stroke-width:0.02846708"
       d="m 21.160273,274.02061 v 3.18376 c 0,0.49761 -0.241116,0.96418 -0.647057,1.25227 l -0.389998,0.2767 c -0.302321,0.21464 -0.664137,0.32993 -1.034778,0.32993 h -1.304646 v -1.31318 l 3.376479,-3.72948" />
    <path
       inkscape:connector-curvature="0"
       id="path948"
       style="fill:#67696a;fill-opacity:1;fill-rule:nonzero;stroke:none;stroke-width:0.02846708"
       d="m 19.924803,274.30614 0.72164,-0.47113 c 0.230014,-0.15031 0.532619,0.0279 0.512977,0.30204 l -0.144898,2.02201 c -0.02733,0.37918 -0.229444,0.72421 -0.547137,0.93344 l -0.517532,0.34075 c -0.314276,0.20667 -0.682356,0.31684 -1.058406,0.31684 h -1.107653 v -3.44395 h 2.141009" />
    <path
       inkscape:connector-curvature="0"
       id="path950"
       style="fill:#808182;fill-opacity:1;fill-rule:nonzero;stroke:none;stroke-width:0.02846708"
       d="m 14.407313,274.02061 v 3.18376 c 0,0.49761 0.241117,0.96418 0.647057,1.25227 l 0.390283,0.2767 c 0.302321,0.21464 0.663853,0.32993 1.034779,0.32993 h 1.304362 v -1.31318 l -3.376481,-3.72948" />
    <path
       inkscape:connector-curvature="0"
       id="path952"
       style="fill:#67696a;fill-opacity:1;fill-rule:nonzero;stroke:none;stroke-width:0.02846708"
       d="m 15.643069,274.30614 -0.72164,-0.47113 c -0.230014,-0.15031 -0.53262,0.0279 -0.512977,0.30204 l 0.144897,2.02201 c 0.02704,0.37918 0.229446,0.72421 0.546852,0.93344 l 0.517817,0.34075 c 0.314276,0.20667 0.682071,0.31684 1.058407,0.31684 h 1.107369 v -3.44395 h -2.140725" />
    <path
       inkscape:connector-curvature="0"
       id="path954"
       style="fill:#67696a;fill-opacity:1;fill-rule:nonzero;stroke:none;stroke-width:0.02846708"
       d="m 15.643069,268.99702 h 4.281734 v 5.30912 h -4.281734 v -5.30912" />
    <path
       inkscape:connector-curvature="0"
       id="path956"
       style="fill:#4f5050;fill-opacity:1;fill-rule:nonzero;stroke:none;stroke-width:0.02846708"
       d="m 16.894481,277.06062 h 1.778909 c 0.578165,0 1.059829,-0.44324 1.107654,-1.0197 l 0.143759,-1.73478 h -4.281734 l 0.143759,1.73478 c 0.04783,0.57646 0.529488,1.0197 1.107653,1.0197" />
    <path
       inkscape:connector-curvature="0"
       id="path958"
       style="fill:#a7a5a6;fill-opacity:1;fill-rule:nonzero;stroke:none;stroke-width:0.02846708"
       d="m 19.585759,278.16685 c 0.0262,-0.0572 0.04498,-0.11843 0.06064,-0.18077 -0.01537,0.0624 -0.03474,0.12327 -0.06064,0.18077" />
    <path
       inkscape:connector-curvature="0"
       id="path960"
       style="fill:#a7a5a6;fill-opacity:1;fill-rule:nonzero;stroke:none;stroke-width:0.02846708"
       d="m 19.657212,277.95163 c 0.01594,-0.0734 0.02477,-0.14945 0.02477,-0.22773 0,0.0782 -0.0091,0.1543 -0.02477,0.22773" />
    <path
       inkscape:connector-curvature="0"
       id="path962"
       style="fill:#918f90;fill-opacity:1;fill-rule:nonzero;stroke:none;stroke-width:0.02846708"
       d="m 18.668835,276.44374 h 0.584714 c 0.236561,0 0.428429,0.19186 0.428429,0.42842 v 0.85174 c 0,0.0782 -0.0088,0.1543 -0.02477,0.22773 l -0.01083,0.0344 c -0.01566,0.0624 -0.03445,0.12355 -0.06064,0.18077 l -0.0075,0.014 c -0.06177,0.13094 -0.148028,0.24794 -0.253926,0.34473 -0.345875,-0.60492 -0.656166,-1.36926 -0.655597,-2.08179" />
    <path
       inkscape:connector-curvature="0"
       id="path964"
       style="fill:#a7a5a6;fill-opacity:1;fill-rule:nonzero;stroke:none;stroke-width:0.02846708"
       d="m 15.885893,277.7239 c 0,0.0782 0.0088,0.1543 0.02477,0.22773 -0.01594,-0.0734 -0.02477,-0.14945 -0.02477,-0.22773" />
    <path
       inkscape:connector-curvature="0"
       id="path966"
       style="fill:#a7a5a6;fill-opacity:1;fill-rule:nonzero;stroke:none;stroke-width:0.02846708"
       d="m 15.921193,277.98608 c 0.01594,0.0624 0.03445,0.12354 0.06064,0.18077 -0.02563,-0.0575 -0.04498,-0.11843 -0.06064,-0.18077" />
    <path
       inkscape:connector-curvature="0"
       id="path968"
       style="fill:#a7a5a6;fill-opacity:1;fill-rule:nonzero;stroke:none;stroke-width:0.02846708"
       d="m 16.899036,276.44374 h 1.769799 c -5.76e-4,0.71253 0.309721,1.47686 0.655597,2.08179 0.105897,-0.0968 0.192152,-0.2138 0.253925,-0.34473 -0.173079,0.37206 -0.547422,0.6314 -0.98496,0.6314 h -0.809603 -0.809605 c -0.437254,0 -0.811595,-0.25934 -0.984675,-0.6314 0.06177,0.13093 0.148028,0.24795 0.253927,0.34473 0.345589,-0.60493 0.65588,-1.36926 0.655595,-2.08179" />
    <path
       inkscape:connector-curvature="0"
       id="path970"
       style="fill:#918f90;fill-opacity:1;fill-rule:nonzero;stroke:none;stroke-width:0.02846708"
       d="m 15.921193,277.98608 -0.01053,-0.0344 c -0.01594,-0.0734 -0.02477,-0.14945 -0.02477,-0.22773 v -0.85173 c 0,-0.23656 0.191582,-0.42844 0.428144,-0.42844 h 0.584999 c 2.77e-4,0.71254 -0.310007,1.47687 -0.655596,2.0818 -0.105899,-0.0968 -0.192154,-0.21379 -0.253927,-0.34474 l -0.0077,-0.014 c -0.0262,-0.0572 -0.04469,-0.11842 -0.06064,-0.18076" />
  </g>
</svg>
